0,7.5,7.6,7.7,7.8,7.9,8,8.1,8.2,8.3,8.4,8.5,8.6,8.7,8.8,8.9,9,9.1,9.2,9.3,9.4,9.5
5.1,23,23.2,23.4,23.6,23.8,24,24.2,24.4,24.6,24.8,25,25.2,25.4,25.6,25.8,26,26,26,26,26,26
5.2,25,25.2,25.4,25.6,25.8,26,26.2,26.4,26.6,26.8,27,27.2,27.4,27.6,27.8,28,28,28,28,28,28
5.3,27,27.2,27.4,27.6,27.8,28,28.2,28.4,28.6,28.8,29,29.2,29.4,29.6,29.8,30,30,30,30,30,30
5.4,29,29.2,29.4,29.6,29.8,30,30.2,30.4,30.6,30.8,31,31.2,31.4,31.6,31.8,32,32,32,32,32,32
5.5,31,31.2,31.4,31.6,31.8,32,32.2,32.4,32.6,32.8,33,33.2,33.4,33.6,33.8,34,34,34,34,34,34
5.6,33,33.2,33.4,33.6,33.8,34,34.2,34.4,34.6,34.8,35,35.2,35.4,35.6,35.8,36,36,36,36,36,36
5.7,33.5,33.7,33.9,34.1,34.3,34.5,34.7,34.9,35.1,35.3,35.5,35.7,35.9,36.1,36.3,36.5,36.5,36.5,36.5,36.5,36.5
5.8,34,34.2,34.4,34.6,34.8,35,35.2,35.4,35.6,35.8,36,36.2,36.4,36.6,36.8,37,37,37,37,37,37
5.9,34.5,34.7,34.9,35.1,35.3,35.5,35.7,35.9,36.1,36.3,36.5,36.7,36.9,37.1,37.3,37.5,37.5,37.5,37.5,37.5,37.5
6,35,35.2,35.4,35.6,35.8,36,36.2,36.4,36.6,36.8,37,37.2,37.4,37.6,37.8,38,38,38,38,38,38
6.1,35.3,35.5,35.7,35.9,36.1,36.3,36.5,36.7,36.9,37.1,37.3,37.5,37.7,37.9,38.1,38.3,38.3,38.3,38.3,38.3,38.3
6.2,35.6,35.8,36,36.2,36.4,36.6,36.8,37,37.2,37.4,37.6,37.8,38,38.2,38.4,38.6,38.6,38.6,38.6,38.6,38.6
6.3,35.9,36.1,36.3,36.5,36.7,36.9,37.1,37.3,37.5,37.7,37.9,38.1,38.3,38.5,38.7,38.9,38.9,38.9,38.9,38.9,38.9
6.4,36.2,36.4,36.6,36.8,37,37.2,37.4,37.6,37.8,38,38.2,38.4,38.6,38.8,39,39.2,39.2,39.2,39.2,39.2,39.2
6.5,36.5,36.7,36.9,37.1,37.3,37.5,37.7,37.9,38.1,38.3,38.5,38.7,38.9,39.1,39.3,39.5,39.5,39.5,39.5,39.5,39.5
6.6,36.8,37,37.2,37.4,37.6,37.8,38,38.2,38.4,38.6,38.8,39,39.2,39.4,39.6,39.8,39.8,39.8,39.8,39.8,39.8
6.7,37.1,37.3,37.5,37.7,37.9,38.1,38.3,38.5,38.7,38.9,39.1,39.3,39.5,39.7,39.9,40.1,40.1,40.1,40.1,40.1,40.1
6.8,37.4,37.6,37.8,38,38.2,38.4,38.6,38.8,39,39.2,39.4,39.6,39.8,40,40.2,40.4,40.4,40.4,40.4,40.4,40.4
6.9,37.7,37.9,38.1,38.3,38.5,38.7,38.9,39.1,39.3,39.5,39.7,39.9,40.1,40.3,40.5,40.7,40.7,40.7,40.7,40.7,40.7
7,38,38.2,38.4,38.6,38.8,39,39.2,39.4,39.6,39.8,40,40.2,40.4,40.6,40.8,41,41,41,41,41,41
7.1,38.3,38.5,38.7,38.9,39.1,39.3,39.5,39.7,39.9,40.1,40.3,40.5,40.7,40.9,41.1,41.3,41.3,41.3,41.3,41.3,41.3
7.2,38.6,38.8,39,39.2,39.4,39.6,39.8,40,40.2,40.4,40.6,40.8,41,41.2,41.4,41.6,41.6,41.6,41.6,41.6,41.6
7.3,38.9,39.1,39.3,39.5,39.7,39.9,40.1,40.3,40.5,40.7,40.9,41.1,41.3,41.5,41.7,41.9,41.9,41.9,41.9,41.9,41.9
7.4,39.2,39.4,39.6,39.8,40,40.2,40.4,40.6,40.8,41,41.2,41.4,41.6,41.8,42,42.2,42.2,42.2,42.2,42.2,42.2
7.5,39.5,39.7,39.9,40.1,40.3,40.5,40.7,40.9,41.1,41.3,41.5,41.7,41.9,42.1,42.3,42.5,42.5,42.5,42.5,42.5,42.5
7.6,39.8,40,40.2,40.4,40.6,40.8,41,41.2,41.4,41.6,41.8,42,42.2,42.4,42.6,42.8,42.8,42.8,42.8,42.8,42.8
7.7,40.1,40.3,40.5,40.7,40.9,41.1,41.3,41.5,41.7,41.9,42.1,42.3,42.5,42.7,42.9,43.1,43.1,43.1,43.1,43.1,43.1
7.8,40.4,40.6,40.8,41,41.2,41.4,41.6,41.8,42,42.2,42.4,42.6,42.8,43,43.2,43.4,43.4,43.4,43.4,43.4,43.4
7.9,40.7,40.9,41.1,41.3,41.5,41.7,41.9,42.1,42.3,42.5,42.7,42.9,43.1,43.3,43.5,43.7,43.7,43.7,43.7,43.7,43.7
8,41,41.2,41.4,41.6,41.8,42,42.2,42.4,42.6,42.8,43,43.2,43.4,43.6,43.8,44,44,44,44,44,44
8.1,41.3,41.5,41.7,41.9,42.1,42.3,42.5,42.7,42.9,43.1,43.3,43.5,43.7,43.9,44.1,44.3,44.3,44.3,44.3,44.3,44.3
8.2,41.6,41.8,42,42.2,42.4,42.6,42.8,43,43.2,43.4,43.6,43.8,44,44.2,44.4,44.6,44.6,44.6,44.6,44.6,44.6
8.3,41.9,42.1,42.3,42.5,42.7,42.9,43.1,43.3,43.5,43.7,43.9,44.1,44.3,44.5,44.7,44.9,44.9,44.9,44.9,44.9,44.9
8.4,42.2,42.4,42.6,42.8,43,43.2,43.4,43.6,43.8,44,44.2,44.4,44.6,44.8,45,45.2,45.2,45.2,45.2,45.2,45.2
8.5,42.5,42.7,42.9,43.1,43.3,43.5,43.7,43.9,44.1,44.3,44.5,44.7,44.9,45.1,45.3,45.5,45.5,45.5,45.5,45.5,45.5
8.6,42.8,43,43.2,43.4,43.6,43.8,44,44.2,44.4,44.6,44.8,45,45.2,45.4,45.6,45.8,45.8,45.8,45.8,45.8,45.8
8.7,43.1,43.3,43.5,43.7,43.9,44.1,44.3,44.5,44.7,44.9,45.1,45.3,45.5,45.7,45.9,46.1,46.1,46.1,46.1,46.1,46.1
8.8,43.4,43.6,43.8,44,44.2,44.4,44.6,44.8,45,45.2,45.4,45.6,45.8,46,46.2,46.4,46.4,46.4,46.4,46.4,46.4
8.9,43.7,43.9,44.1,44.3,44.5,44.7,44.9,45.1,45.3,45.5,45.7,45.9,46.1,46.3,46.5,46.7,46.7,46.7,46.7,46.7,46.7
9,44,44.2,44.4,44.6,44.8,45,45.2,45.4,45.6,45.8,46,46.2,46.4,46.6,46.8,47,47,47,47,47,47
9.1,44.3,44.5,44.7,44.9,45.1,45.3,45.5,45.7,45.9,46.1,46.3,46.5,46.7,46.9,47.1,47.3,47.3,47.3,47.3,47.3,47.3
9.2,44.6,44.8,45,45.2,45.4,45.6,45.8,46,46.2,46.4,46.6,46.8,47,47.2,47.4,47.6,47.6,47.6,47.6,47.6,47.6
9.3,44.9,45.1,45.3,45.5,45.7,45.9,46.1,46.3,46.5,46.7,46.9,47.1,47.3,47.5,47.7,47.9,47.9,47.9,47.9,47.9,47.9
9.4,45.2,45.4,45.6,45.8,46,46.2,46.4,46.6,46.8,47,47.2,47.4,47.6,47.8,48,48.2,48.2,48.2,48.2,48.2,48.2
9.5,45.5,45.7,45.9,46.1,46.3,46.5,46.7,46.9,47.1,47.3,47.5,47.7,47.9,48.1,48.3,48.5,48.5,48.5,48.5,48.5,48.5
9.6,45.8,46,46.2,46.4,46.6,46.8,47,47.2,47.4,47.6,47.8,48,48.2,48.4,48.6,48.8,48.8,48.8,48.8,48.8,48.8
9.7,46.1,46.3,46.5,46.7,46.9,47.1,47.3,47.5,47.7,47.9,48.1,48.3,48.5,48.7,48.9,49.1,49.1,49.1,49.1,49.1,49.1
9.8,46.4,46.6,46.8,47,47.2,47.4,47.6,47.8,48,48.2,48.4,48.6,48.8,49,49.2,49.4,49.4,49.4,49.4,49.4,49.4
9.9,46.7,46.9,47.1,47.3,47.5,47.7,47.9,48.1,48.3,48.5,48.7,48.9,49.1,49.3,49.5,49.7,49.7,49.7,49.7,49.7,49.7
10,47,47.2,47.4,47.6,47.8,48,48.2,48.4,48.6,48.8,49,49.2,49.4,49.6,49.8,50,50,50,50,50,50
10.1,47.3,47.5,47.7,47.9,48.1,48.3,48.5,48.7,48.9,49.1,49.3,49.5,49.7,49.9,50.1,50.3,50.3,50.3,50.3,50.3,50.3
10.2,47.6,47.8,48,48.2,48.4,48.6,48.8,49,49.2,49.4,49.6,49.8,50,50.2,50.4,50.6,50.6,50.6,50.6,50.6,50.6
10.3,47.9,48.1,48.3,48.5,48.7,48.9,49.1,49.3,49.5,49.7,49.9,50.1,50.3,50.5,50.7,50.9,50.9,50.9,50.9,50.9,50.9
10.4,48.2,48.4,48.6,48.8,49,49.2,49.4,49.6,49.8,50,50.2,50.4,50.6,50.8,51,51.2,51.2,51.2,51.2,51.2,51.2
10.5,48.5,48.7,48.9,49.1,49.3,49.5,49.7,49.9,50.1,50.3,50.5,50.7,50.9,51.1,51.3,51.5,51.5,51.5,51.5,51.5,51.5
10.6,48.8,49,49.2,49.4,49.6,49.8,50,50.2,50.4,50.6,50.8,51,51.2,51.4,51.6,51.8,51.8,51.8,51.8,51.8,51.8
10.7,49.1,49.3,49.5,49.7,49.9,50.1,50.3,50.5,50.7,50.9,51.1,51.3,51.5,51.7,51.9,52.1,52.1,52.1,52.1,52.1,52.1
10.8,49.4,49.6,49.8,50,50.2,50.4,50.6,50.8,51,51.2,51.4,51.6,51.8,52,52.2,52.4,52.4,52.4,52.4,52.4,52.4
10.9,49.7,49.9,50.1,50.3,50.5,50.7,50.9,51.1,51.3,51.5,51.7,51.9,52.1,52.3,52.5,52.7,52.7,52.7,52.7,52.7,52.7
11,50,50.2,50.4,50.6,50.8,51,51.2,51.4,51.6,51.8,52,52.2,52.4,52.6,52.8,53,53,53,53,53,53
