﻿0,8,8.1,8.2,8.3,8.4,8.5,8.6,8.7,8.8,8.9,9,9.1,9.2,9.3,9.4,9.5,9.6,9.7,9.8,9.9,10
3,22.33,23.05,23.52,23.98,24.4,24.82,25.08,25.32,25.56,25.77,25.99,26.21,26.42,26.64,26.86,27.07,27.29,27.51,27.72,27.94,28.16
3.1,22.55,23.27,23.73,24.2,24.62,25.03,25.3,25.54,25.77,25.99,26.21,26.42,26.64,26.86,27.07,27.29,27.51,27.72,27.94,28.16,28.37
3.2,22.77,23.48,23.95,24.42,24.83,25.25,25.52,25.75,25.99,26.21,26.42,26.64,26.86,27.07,27.29,27.51,27.72,27.94,28.16,28.37,28.59
3.3,22.98,23.7,24.17,24.63,25.05,25.47,25.73,25.97,26.21,26.42,26.64,26.86,27.07,27.29,27.51,27.72,27.94,28.16,28.37,28.59,28.81
3.4,23.2,23.92,24.38,24.85,25.27,25.68,25.95,26.19,26.42,26.64,26.86,27.07,27.29,27.51,27.72,27.94,28.16,28.37,28.59,28.81,29.02
3.5,23.42,24.13,24.6,25.07,25.48,25.9,26.17,26.4,26.64,26.86,27.07,27.29,27.51,27.72,27.94,28.16,28.37,28.59,28.81,29.02,29.24
3.6,23.63,24.35,24.82,25.28,25.7,26.12,26.38,26.62,26.86,27.07,27.29,27.51,27.72,27.94,28.16,28.37,28.59,28.81,29.02,29.24,29.46
3.7,23.85,24.57,25.03,25.5,25.92,26.33,26.6,26.84,27.07,27.29,27.51,27.72,27.94,28.16,28.37,28.59,28.81,29.02,29.24,29.46,29.67
3.8,24.07,24.78,25.25,25.72,26.13,26.55,26.82,27.05,27.29,27.51,27.72,27.94,28.16,28.37,28.59,28.81,29.02,29.24,29.46,29.67,29.89
3.9,24.28,25,25.47,25.93,26.35,26.77,27.03,27.27,27.51,27.72,27.94,28.16,28.37,28.59,28.81,29.02,29.24,29.46,29.67,29.89,30.11
4,24.5,25.22,25.68,26.15,26.57,26.98,27.25,27.49,27.72,27.94,28.16,28.37,28.59,28.81,29.02,29.24,29.46,29.67,29.89,30.11,30.32
4.1,24.72,25.43,25.9,26.37,26.78,27.2,27.47,27.7,27.94,28.16,28.37,28.59,28.81,29.02,29.24,29.46,29.67,29.89,30.11,30.32,30.54
4.2,24.93,25.65,26.12,26.58,27,27.42,27.68,27.92,28.16,28.37,28.59,28.81,29.02,29.24,29.46,29.67,29.89,30.11,30.32,30.54,30.76
4.3,25.15,25.87,26.33,26.8,27.22,27.63,27.9,28.14,28.37,28.59,28.81,29.02,29.24,29.46,29.67,29.89,30.11,30.32,30.54,30.76,30.97
4.4,25.37,26.08,26.55,27.02,27.43,27.85,28.12,28.35,28.59,28.81,29.02,29.24,29.46,29.67,29.89,30.11,30.32,30.54,30.76,30.97,31.19
4.5,25.58,26.3,26.77,27.23,27.65,28.07,28.33,28.57,28.81,29.02,29.24,29.46,29.67,29.89,30.11,30.32,30.54,30.76,30.97,31.19,31.41
4.6,25.8,26.52,26.98,27.45,27.87,28.28,28.55,28.79,29.02,29.24,29.46,29.67,29.89,30.11,30.32,30.54,30.76,30.97,31.19,31.41,31.62
4.7,26.02,26.73,27.2,27.67,28.08,28.5,28.77,29,29.24,29.46,29.67,29.89,30.11,30.32,30.54,30.76,30.97,31.19,31.41,31.62,31.84
4.8,26.23,26.95,27.42,27.88,28.3,28.72,28.98,29.22,29.46,29.67,29.89,30.11,30.32,30.54,30.76,30.97,31.19,31.41,31.62,31.84,32.06
4.9,26.45,27.17,27.63,28.1,28.52,28.93,29.2,29.44,29.67,29.89,30.11,30.32,30.54,30.76,30.97,31.19,31.41,31.62,31.84,32.06,32.27
$,,,,,,,,,,,,,,,,,,,,,
